Modellers and Story Tellers: Group 2 project
…
# A tibble: 97 × 3
   topic term          beta
   <int> <chr>        <dbl>
 1     1 food        0.162 
 2     1 budget      0.0710
 3     1 purchase    0.0579
 4     1 increase    0.0434
 5     1 consistency 0.0434
 6     1 serve       0.0290
 7     1 la          0.0290
 8     1 people      0.0290
 9     1 quality     0.0145
10     1 farmers     0.0145
# ℹ 87 more rows
…
